{
  "parent": "minecraft:recipes/root",
  "rewards": {
    "recipes": [
      "mining_helmet:mining_helmet"
    ]
  },
  "criteria": {
    "has_lantern": {
      "trigger": "minecraft:inventory_changed",
      "conditions": {
        "items": [
          {
            "item": "minecraft:lantern"
          }
        ]
      }
    },
    "has_iron": {
      "trigger": "minecraft:inventory_changed",
      "conditions": {
        "items": [
          {
            "item": "minecraft:iron_ingot"
          }
        ]
      }
    },
    "has_the_recipe": {
      "trigger": "minecraft:recipe_unlocked",
      "conditions": {
        "recipe": "mining_helmet:mining_helmet"
      }
    }
  },
  "requirements": [
    [
      "has_lantern",
      "has_iron",
      "has_the_recipe"
    ]
  ]
}